chocolate;67309
dessert;18601
foodporn;14021
food;12011
instafood;10500
yum;10120
foodie;9691
delicious;9127
melbourne;8284
sydney;8202
icecream;7888
sweet;7431
cake;7312
yummy;6978
coffee;6193
australia;5649
love;5293
instagood;4509
foodstagram;4235
cafe;3967
foodgasm;3933
sweettooth;3729
dessertporn;3537
sydneyeats;3492
desserts;3124
vegan;3112
brisbane;2929
glutenfree;2927
amazing;2867
foodpics;2856
sweets;2722
breakfast;2615
sydneyfood;2606
eat;2603
healthy;2506
tasty;2499
strawberry;2491
delish;2490
nutella;2439
caramel;2411
maxbrenner;2263
hungry;2259
easter;2191
hotchocolate;2154
raw;2126
picoftheday;2108
instadaily;2065
organic;2021
gelato;1915
happy;1910
foodphotography;1889
vscocam;1871
melbournefood;1866
brownie;1773
saltedcaramel;1768
foodblog;1765
strawberries;1753
coconut;1728
treat;1701
foodpic;1619
foodblogger;1596
perth;1593
sydneyfoodie;1588
banana;1569
photooftheday;1527
eating;1516
waffles;1475
paleo;1474
vanilla;1464
brunch;1463
dairyfree;1443
peanutbutter;1381
birthday;1368
weekend;1363
foods;1362
dinner;1354
raspberry;1339
cleaneating;1338
adelaide;1336
cacao;1331
foodies;1327
cream;1318
brisbanefood;1314
lunch;1304
nomnom;1278
mousse;1265
sugar;1254
vsco;1245
hazelnut;1224
pastry;1216
baking;1212
health;1208
milkshake;1172
churros;1169
fresh;1156
travel;1139
homemade;1114
instalike;1104
brisbaneeats;1050
cheesecake;1041
